{"status":"ok","total_hits":10000,"page":1,"total_pages":1112,"page_size":9,"articles":[{"title":"भक्तों के लिए खुले बदरीनाथ के कपाट, 'जय बदरीविशाल' के जयकारों से गूंज उठा धाम","author":null,"published_date":"2022-05-08 03:30:00","published_date_precision":"timezone unknown","link":"https://www.punjabkesari.in/national/news/the-doors-of-badrinath-open-for-the-devotees-with-the-law-1595673","clean_url":"punjabkesari.in","excerpt":"बदरीनाथ मंदिर के कपाट आज रविवार को ब्रह्म मुहूर्त में 6:15 बजे खोल दिए गए। रविवार सुबह बदरीनाथ मंदिर के कपाट खुलते ही धाम जय बदरीविशाल के जयकारों से गूंज उठा।","summary":"नेशनल डेस्कः बदरीनाथ मंदिर के कपाट आज रविवार को ब्रह्म मुहूर्त में 6:15 बजे खोल दिए गए। रविवार सुबह बदरीनाथ मंदिर के कपाट खुलते ही धाम जय बदरीविशाल के जयकारों से गूंज उठा।\n\n#WATCH | Uttarakhand: The doors of Badrinath Dham opened for devotees with rituals and chanting and the tunes of army band with a large number of devotees present in Badrinath Dham. pic.twitter.com/LiCTexcbJu","rights":"punjabkesari.in","rank":111450,"topic":"news","country":"IN","language":"hi","authors":[],"media":"https://img.punjabkesari.in/multimedia/914/0/0X0/0/static.punjabkesari.in/2022_5image_06_51_16081644500.jpg","is_opinion":false,"twitter_account":"@punjabkesari","_score":null,"_id":"286a59a9c60264862528307a7337bd03"},{"title":"चारधाम यात्रा 2022: केदारनाथ में बिजली गुल होने का मामला गरमाया, यूपीसीएल के एग्जीक्यूटिव इंजीनियर निलंबित","author":null,"published_date":"2022-05-08 03:15:00","published_date_precision":"timezone unknown","link":"https://www.amarujala.com/dehradun/chardham-yatra-2022-chief-secretary-strict-on-power-failure-in-kedarnath-executive-engineer-suspended","clean_url":"amarujala.com","excerpt":"चारों धाम में 24 घंटे बिजली आपूर्ति के दावों के बीच घंटों बिजली कटौती का मामला गरमा गया है। मुख्य सचिव डॉ. एसएस संधु ने","summary":"{\"_id\":\"62770abe1023d47c5252e4f4\",\"slug\":\"chardham-yatra-2022-chief-secretary-strict-on-power-failure-in-kedarnath-executive-engineer-suspended\",\"type\":\"feature-story\",\"status\":\"publish\",\"title_hn\":\"चारधाम यात्रा 2022: केदारनाथ में बिजली गुल होने का मामला गरमाया, यूपीसीएल के एग्जीक्यूटिव इंजीनियर निलंबित\",\"category\":{\"title\":\"City & states\",\"title_hn\":\"शहर और राज्य\",\"slug\":\"city-and-states\"}} \n\nन्यूज डेस्क, अमर उजाला, देहरादून \nPublished by: रेनू सकलानी\nUpdated Sun, 08 May 2022 05:50 AM IST\n\n\nसार \nउत्तरकाशी के बड़कोट में चारधाम यात्रियों से बदसलूूकी का वीडियो सोशल मीडिया में वायरल संज्ञान में आते ही मुख्य सचिव डॉ.","rights":"amarujala.com","rank":23311,"topic":"news","country":"IN","language":"hi","authors":[],"media":"https://spiderimg.amarujala.com/assets/images/2022/05/06/750x506/kedarnath-kapat-chardham-yatra-2022_1651812039.jpeg","is_opinion":false,"twitter_account":"@AmarUjalaNews","_score":null,"_id":"330f5725fb3c72817e1147f8fc9019dd"},{"title":"चारधाम यात्रा 2022: ब्रह्म मुहूर्त में खुले बदरीनाथ धाम के कपाट, पीएम मोदी के नाम से हुई पहली पूजा, आस्था का उमड़ा सैलाब","author":null,"published_date":"2022-05-08 03:15:00","published_date_precision":"timezone unknown","link":"https://www.amarujala.com/dehradun/badrinath-dham-doors-open-in-brahma-muhurta-first-worship-done-in-the-name-of-pm-modi-chardham-yatra-2022","clean_url":"amarujala.com","excerpt":"ग्रीष्मकाल के लिए बदरीनाथ मंदिर के कपाट आज रविवार को ब्रह्म मुहूर्त में 6:15 बजे खोल दिए गए। अगले छह महीने श्रद्धालु मंदिर","summary":"{\"_id\":\"6276b645bba72e729a03970b\",\"slug\":\"badrinath-dham-doors-open-in-brahma-muhurta-first-worship-done-in-the-name-of-pm-modi-chardham-yatra-2022\",\"type\":\"feature-story\",\"status\":\"publish\",\"title_hn\":\"चारधाम यात्रा 2022: ब्रह्म मुहूर्त में खुले बदरीनाथ धाम के कपाट, पीएम मोदी के नाम से हुई पहली पूजा, आस्था का उमड़ा सैलाब\",\"category\":{\"title\":\"City & states\",\"title_hn\":\"शहर और राज्य\",\"slug\":\"city-and-states\"}} \n\nसंवाद न्यूज एजेंसी, बदरीनाथ \nPublished by: रेनू सकलानी\nUpdated Sun, 08 May 2022 08:0","rights":"amarujala.com","rank":23311,"topic":"news","country":"IN","language":"hi","authors":[],"media":"https://spiderimg.amarujala.com/assets/images/2022/05/08/750x506/badrinath-dham_1651970332.jpeg","is_opinion":false,"twitter_account":"@AmarUjalaNews","_score":null,"_id":"f518d6c4770b1599b99eb7573d778ed8"},{"title":"छत्तीसगढ़: शांति वार्ता के लिए नक्सलियों ने रखा प्रस्ताव, मुख्यमंत्री भूपेश बघेल ने ठुकराया","author":"niteshdubey","published_date":"2022-05-08 03:14:27","published_date_precision":"full","link":"https://www.jansatta.com/rajya/chhattisgarh/release-the-jailed-leaders-then-there-will-be-talk-naxalites-put-conditions-on-the-proposal-of-chhattisgarh-government-cm-baghel-rejected/2163541/","clean_url":"jansatta.com","excerpt":"नक्सलियों ने मुख्यमंत्री भूपेश बघेल के दावों पर सवाल उठाया है। नक्सलियों ने कहा है कि एक तरफ मुख्यमंत्री बातचीत की पेशकश कर रहे हैं, जबकि दूसरी तरफ हमारे ऊपर हवाई हमला किया जा रहा है।","summary":"वो आपके ही कार्यकर्ता ही होंगे; केजरीवाल बोले- अब मांगने पर ही मिलेगी फ्री बिजली, लोगों ने लिखी है चिट्ठी तो फिल्ममेकर ने ऐसे मारा तानायूक्रेन ने ‘अकड़' छोड़ सबकुछ गंवाया2023 तक मंगल की राशि में विराजमान रहेंगे राहु ग्रह, इन 3 राशि वालों को धनलाभ के साथ तरक्की के भी प्रबल योगशुक्र करो केजरीवाल को नहीं मिली दिल्ली पुलिस, ये पीएम और एचएम को भी बंद कर देते- बोले आचार्य प्रमोद कृष्णन","rights":"jansatta.com","rank":41091,"topic":"news","country":"IN","language":"hi","authors":["niteshdubey"],"media":"https://www.jansatta.com/wp-content/uploads/2022/05/Untitled-design-2022-05-08T084054.175.jpg","is_opinion":false,"twitter_account":"@jansatta","_score":null,"_id":"0782cfb33766e15b3029fc2a8559ae2b"},{"title":"हिमाचल प्रदेश विधानसभा के मेन गेट पर लगाए गए खालिस्तान के झंडे, मचा हड़कंप","author":"kamalkumar","published_date":"2022-05-08 03:14:01","published_date_precision":"full","link":"https://www.jansatta.com/rajya/himachal-pradesh/khalistan-flags-found-tied-on-the-main-gate-and-boundary-wall-of-the-himachal-pradesh-legislative-assembly/2163542/","clean_url":"jansatta.com","excerpt":"सूचना मिलने के बाद पुलिस टीम मौके पर पहुंची और विधानसभा के मुख्यद्वार के साथ लगाए गए झंडे को हटाया गया।","summary":"हिमाचल प्रदेश विधानसभा भवन के मुख्यद्वार के साथ खालिस्तान का झंडा लगे होने के मामला सामने आया है। सुबह स्थानीय लोगों ने खालिस्तान का झंडा विधानसभा भवन के मेन गेट पर लगा देखा तो पुलिस को इसकी सूचना दी। इसके बाद, पुलिस टीम मौके पर पहुंची और विधानसभा के मुख्यद्वार के साथ लगाए गए झंडे को हटाया गया।","rights":"jansatta.com","rank":41091,"topic":"news","country":"IN","language":"hi","authors":["kamalkumar"],"media":"https://www.jansatta.com/wp-content/uploads/2022/05/Khalistan-Flag.jpg","is_opinion":false,"twitter_account":"@jansatta","_score":null,"_id":"a1aaa5e84fbf93e83ed1419c1cc3a769"},{"title":"BPSC 67th Prelims 2022: बिहार 67वीं प्रीलिम्स एग्जाम आज, यहां जानें ज़रूरी गाइडलाइंस","author":"Ankita Pandey","published_date":"2022-05-08 03:04:40","published_date_precision":"full","link":"https://www.jansatta.com/job/bpsc-67th-prelims-guidelines-bpsc-67th-prelims-exam-today-download-admit-card-from-bpscbihnicin-check-important-guidelines/2163536/","clean_url":"jansatta.com","excerpt":"BPSC 67th Prelims Admit Card 2022: प्रिलिमनरी परीक्षा के लिए उम्मीदवार अपना एडमिट कार्ड आयोग की आधिकारिक वेबसाइट bpsc.bih.nic.in से डाउनलोड कर सकते हैं।","summary":"BPSC 67th Prelims Today: बिहार लोक सेवा आयोग (BPSC) द्वारा 67वीं संयुक्त (प्रारंभिक) प्रतियोगी परीक्षा आज यानी 8 मई 2022 को आयोजित की जाएगी। इस परीक्षा में शामिल होने के लिए उम्मीदवार अपना एडमिट कार्ड आधिकारिक वेबसाइट bpsc.bih.nic.in के माध्यम से डाउनलोड कर सकते हैं। BPSC 67th Prelims: 1083 केंद्रों पर होगी परीक्षाआयोग द्वारा बिहार 67वीं संयुक्त (प्रारंभिक) प्रतियोगी परीक्षा आज दोपहर 12:00 से 2:00 तक आयोजित की जाएगी। यह परीक्षा बिहार राज्य के 38 जिलों में कुल 1083 परीक्षा केंद्रों पर होगी। मीडिया रिपोर्ट्स के अनुसार, इस परीक्षा के लिए 6 लाख से अधिक उम्मीदवारों ने रजिस्ट्रेशन किया है। BPSC 67th Prelims: Important Guidelines 1.","rights":"jansatta.com","rank":41091,"topic":"news","country":"IN","language":"hi","authors":["Ankita Pandey"],"media":"https://www.jansatta.com/wp-content/uploads/2022/05/BPSC-67th-Prelims-Exam-2022.jpg","is_opinion":false,"twitter_account":"Jansatta","_score":null,"_id":"49f38f632270c720959f3bc97274857f"},{"title":"जम्मू-कश्मीर: कुलगाम में सुरक्षाबलों और आतंकियों के बीच मुठभेड़, जवानों ने पूरे इलाके को घेरा","author":null,"published_date":"2022-05-08 03:03:43","published_date_precision":"full","link":"https://www.punjabkesari.in/national/news/j-k-encounter-between-security-forces-and-terrorists-in-kulgam-1595679","clean_url":"punjabkesari.in","excerpt":"जम्मू-कश्मीर के कुलगाम जिले में रविवार को आतंकवादियों और सुरक्षा बलों के बीच मुठभेड़ शुरू हो गई। अधिकारियों ने बताया कि आतंकवादियों की मौजूदगी की खुफिया जानकारी के मिलने के बाद इलाके की घेराबंदी कर दी…","summary":"","rights":"punjabkesari.in","rank":111450,"topic":"news","country":"IN","language":"hi","authors":[],"media":"https://img.punjabkesari.in/multimedia/914/0/0X0/0/static.punjabkesari.in/2022_5image_08_33_226282124kulgamencounter.jpg","is_opinion":false,"twitter_account":"@punjabkesari","_score":null,"_id":"32864eba33f996230d0f2d83c164e485"},{"title":"Swapan Shastra Sapne ka prabhav in hindi","author":"Keshav Sharma","published_date":"2022-05-08 03:01:42","published_date_precision":"full","link":"https://www.haribhoomi.com/astrology-and-spirituality/swapan-shastra-sapne-ka-prabhav-in-hindi-424679","clean_url":"haribhoomi.com","excerpt":"Swapan Shastra: रात में सोते समय सपने देखना सामान्य बात है। स्वप्न शास्त्र की मानें तो सपने देखना बहुत ही संयोग नहीं बल्कि इनके जरिए भविष्य के संकेतों को जाना जा सकता है। तो आइए जानते कि, आप जो भी...","summary":"Swapan Shastra: रात में सोते समय सपने देखना सामान्य बात है। स्वप्न शास्त्र की मानें तो सपने देखना बहुत ही संयोग नहीं बल्कि इनके जरिए भविष्य के संकेतों को जाना जा सकता है। तो आइए जानते कि, आप जो भी सपने देखते हैं उनका क्या अर्थ होता है। ये भी पढ़ें: Swapn Shastra: अगर आपने भी सपने में खरीदा है घर तो किसी से भी ना करें शेयर और एक क्लिक कर जानें इसका अर्थअगर आप अपने सपने में हाथ में गुलाब या कोई फूल पकड़े हुए देखते हैं तो ये काफी शुभ सपना माना जाता है। स्वप्न शास्त्र के अनुसार, इस सपने का मतलब होता","rights":"हरिभूमि","rank":397980,"topic":"news","country":"IN","language":"hi","authors":["Keshav Sharma","Keshav Sharma"],"media":"https://www.haribhoomi.com/h-upload/2021/09/01/1172304-.gif","is_opinion":false,"twitter_account":null,"_score":null,"_id":"f450043cc38119ef16febe1771e0b0ae"},{"title":"बैंगलोर बनाम हैदराबाद के मैच में पूर्व कप्तान कोहली और केन विलियमसन पर रहेंगी निगाहें","author":"Webdunia","published_date":"2022-05-08 02:45:00","published_date_precision":"timezone unknown","link":"https://hindi.webdunia.com/ipl-2022-news/all-eyes-on-virat-kohli-and-kane-williamson-in-bangalore-vs-hyderabad-match-122050700104_1.html","clean_url":"webdunia.com","excerpt":"रॉयल चैलेंजर्स बेंगलोर और सनराइजर्स हैदराबाद इंडियन प्रीमियर लीग के मुकाबले में जब रविवार को दोपहर 3.30 बजे आमने सामने होंगे तो खराब फॉर्म से जूझ रहे दुनिया के दो दिग्गज बल्लेबाजों विराट कोहली और केन…","summary":"रॉयल चैलेंजर्स बेंगलोर और सनराइजर्स हैदराबाद इंडियन प्रीमियर लीग के मुकाबले में जब रविवार को दोपहर 3.30 बजे आमने सामने होंगे तो खराब फॉर्म से जूझ रहे दुनिया के दो दिग्गज बल्लेबाजों विराट कोहली और केन विलियमसन पर सभी की नजरें होंगी। हेड टू हेड रिकॉर्ड हेड टू हेड रिकॉर्ड की बात करें तो हैदराबाद का पलड़ा बैंगलोर पर खासा भारी है। आईपीएल में जब भी ये दोनों टीमें भिड़ी हैं, हैदराबाद का पलड़ा भारी रहा है। पिछले पांच मैचों में तो यह अंतर और स्पष्ट हुआ है, जब हैदराबाद को पांच में से चार मैचों में जीत मिल","rights":"webdunia.com","rank":59751,"topic":"news","country":"IN","language":"hi","authors":["Webdunia"],"media":"https://nonprod-media.webdunia.com/public_html/_media/hi/img/article/2022-04/23/thumb/16_9/1650699117-9728.jpeg","is_opinion":false,"twitter_account":"@WebduniaHindi","_score":null,"_id":"35d18fc07fce8498a22a6e7dee924b93"}],"user_input":{"lang":["hi"],"not_lang":null,"countries":["IN"],"not_countries":null,"page":1,"size":9,"sources":null,"not_sources":null,"topic":"news","from":"2022-04-08 03:38:47"}}